{
    "============================ Auth ============================": "",
    "CHANGE PASSWORD": "تغيير كلمة المرور",
    "Change Your Password For ": "تغيير كلمة المرور الخاصة بك ",
    " Waseati ": " وسيطي ",
    "Wassity": "وسيطي",
    "Platform": "المنصة",
    "Old Password": "كلمة المرور القديمة",
    "New Password": "كلمة السر الجديدة",
    "Confirm New Password": "تأكيد كلمة المرور الجديدة",
    "Send": "إرسال",
    "FORGOT PASSWORD": "هل نسيت كلمة السر",
    "Please Write Your Email So We Can Send You  A Password Reset Link": "يرجى كتابة بريدك الإلكتروني حتى نتمكن من إرسال رابط إعادة تعيين كلمة المرور إليك",
    "Email Address": "عنوان البريد الالكترونى",
    "NEW PASSWORD": "كلمة السر الجديدة",
    "PASSWORD CHANGED": "تم تغيير كلمة السر",
    "As A Security Measure, We Will Redirect You To The Login Page So That We Will Save Your New Password": "كإجراء أمني ، سنعيد توجيهك إلى صفحة تسجيل الدخول حتى نحفظ كلمة مرورك الجديدة",
    "Hire Him": "تعيين",
    "LOG IN": "تسجيل الدخول",
    "Password": "كلمة المرور",
    "Remember Me": "تذكرنى",
    "Forgot Your Password?": "نسيت كلمة المرور؟",
    "Log in": "تسجيل الدخول",
    "Don't Have An Account?": "لا يوجد لديك حساب؟",
    "Create One": "إنشاء حساب",
    "SIGN UP": "سجل",
    "Your First Name": "الاسم الأول",
    "First name": "الاسم الاول",
    "Your Last Name": "الاسم الاخير",
    "Last name": "الاسم الاخير",
    "Password Confirmation": "تأكيد كلمة المرور",
    "Bio": "السيرة الذاتية",
    "Customer": "عميل",
    "Dealer": "بائع",
    "Coin price": "سعر العملة",
    "Select country": "حدد الدولة",
    "Select city": "اختر مدينة",
    "Sign up": "سجل",
    "Have Account?": "هل لديك حساب؟",
    "Login ": "تسجيل الدخول ",
    "============================ Navigation Bar ============================": "",
    "Cart Tab": "Cart Tab",
    "Favorite Tab": "Favorite Tab",
    "Home": "الصفحة الرئيسية",
    "Favorite": "المفضل",
    "Profile": "الملف الشخصي",
    "Currency Exchange": "صرف العملات",
    "Exchange Your Currency Faster": "صرف عملتك بشكل أسرع",
    "Add A Transfer Request": "إضافة طلب تحويل",
    "My Projects": "مشاريعي",
    "Mediators": "الوسطاء",
    "Edit": "تعديل",
    "From": "من",
    "Brief About Me": "موجز عني",
    "Customer Reviews And Opinions": "آراء العملاء",
    "Rating": "تقييم",
    "Show more": "أظهر المزيد",
    "Are you sure you want to exit?": "هل انت متاكد تريد اغلاق التطبيق؟",
    "============================ other ============================": "",
    "About": "عنا",
    "About Waseety": "حول Waseety",
    "Privacy policy": "سياسة الخصوصية",
    "Start Building Your Deal": "ابدأ بناء صفقتك",
    "Start Your Project On Waseati Platform Quickly": "ابدأ مشروعك على منصة Waseati بسرعة",
    "Project Image": "صورة المشروع",
    "Project title": "عنوان المشروع",
    "The Amount to be transferred": "المبلغ المراد تحويله",
    "Details of the transactions": "تفاصيل المعاملات",
    "Add A New Deal": "أضف صفقة جديدة",
    "Rate us": "قيمنا",
    "Change password": "تغيير كلمة المرور",
    "Logout": "تسجيل خروج",
    "Exchange": "تبادل",
    "Info": "معلومات",
    "Products": "منتجات",
    "Language": "اللغة",
    "Messages": "الرسائل",
    "Inquiries About Completing A Currency Exchange Deal": "استفسارات حول إتمام صفقة صرف العملات",
    "Peace be upon you. I need to explain to you the project, the scope of work and the final agreementWhen is the right time today for a Zoom session? The project is available in user flow, explanation and xd for most pages except for the landing page Waiting for you": "السلام عليكم. أحتاج أن أشرح لكم المشروع ونطاق العمل والاتفاق النهائي. ما هو الوقت المناسب اليوم لجلسة Zoom؟ المشروع متاح في تدفق المستخدم والشرح و xd لمعظم الصفحات باستثناء الصفحة المقصودة في انتظارك",
    "Notifications": "إشعارات",
    "Wewe Currency Exchange Deal": "صفقة Wewe لصرف العملات",
    "Offer is pending": "العرض معلق",
    "Stage Of Receiving Offers": "مرحلة استلام العروض",
    "Implementation Phase": "مرحلة التنفيذ",
    "Delivery Stage": "مرحلة التسليم",
    "Project Details": "تفاصيل المشروع",
    "Add your Offer Now": "أضف عرضك الآن",
    "Digital Currency (Digital Currency And Digital Money) Is A Type Of Digital Currency And Digital Cash. Physical, Physical, Portable, Portable, Portable, Portable, Portable, Portable Mutual, Foreign Exchange Exchange. On The Same Front, You Can Use Currencies In Forex Trading. Digital Currency (Digital Currency And Digital Money) Is A Type Of Digital Currency And Digital Cash. Physical, Physi": "العملة الرقمية (العملة الرقمية والنقود الرقمية) هي نوع من العملات الرقمية والنقد الرقمي. مادي ، مادي ، محمول ، محمول ، محمول ، محمول ، محمول ، محمول متبادل ، صرف العملات الأجنبية. على نفس الصعيد ، يمكنك استخدام العملات في تجارة الفوركس. العملة الرقمية (العملة الرقمية والنقود الرقمية) هي نوع من العملات الرقمية والنقد الرقمي. جسدي ، فيزي",
    "Offer Titles": "شروط التوصيل",
    "Offer Value": "قيمة العرض",
    "Your Dues": "مستحقاتك",
    "Offers On Your Deal": "عروض على صفقتك",
    "============================ Widgets ============================": "",
    "Congratulations": "تهانينا",
    "Your Deal Has Been Successfully Added.. Please Wait For The Brokers To Place Their Offers On Your Deal": "تمت إضافة صفقتك بنجاح .. يرجى الانتظار حتى يقوم الوسطاء بتقديم عروضهم على صفقتك",
    "Cancel": "يلغي",
    "Confirm": "يتأكد",
    "Congratulations you won.": "مبروك لكم فوز.",
    "Something went wrong please try again later !": "هناك شئ خاطئ، يرجى المحاولة فى وقت لاحق !",
    "The site will be a mediator between you and Khaled until the transaction is completed": "سيكون الموقع وسيطا بينك وبين خالد حتى تكتمل الصفقة",
    "TEMP": "TEMP",
    "LAST": "LAST"
}